module de/blockchainkids/govotee

go 1.18

require (
	github.com/gorilla/mux v1.8.0
	github.com/joho/godotenv v1.4.0
)

require (
	github.com/benbjohnson/clock v1.1.0 // indirect
	github.com/beorn7/perks v1.0.1 // indirect
	github.com/btcsuite/btcd v0.22.0-beta // indirect
	github.com/cespare/xxhash/v2 v2.1.1 // indirect
	github.com/cheekybits/genny v1.0.0 // indirect
	github.com/containerd/cgroups v0.0.0-20201119153540-4cbc285b3327 // indirect
	github.com/coreos/go-systemd/v22 v22.1.0 // indirect
	github.com/davidlazar/go-crypto v0.0.0-20200604182044-b73af7476f6c // indirect
	github.com/docker/go-units v0.4.0 // indirect
	github.com/elastic/gosigar v0.12.0 // indirect
	github.com/flynn/noise v1.0.0 // indirect
	github.com/francoispqt/gojay v1.2.13 // indirect
	github.com/fsnotify/fsnotify v1.4.9 // indirect
	github.com/go-task/slim-sprig v0.0.0-20210107165309-348f09dbbbc0 // indirect
	github.com/godbus/dbus/v5 v5.0.3 // indirect
	github.com/gogo/protobuf v1.3.2 // indirect
	github.com/golang/protobuf v1.5.2 // indirect
	github.com/google/gopacket v1.1.19 // indirect
	github.com/gorilla/websocket v1.4.2 // indirect
	github.com/huin/goupnp v1.0.2 // indirect
	github.com/ipfs/go-cid v0.0.7 // indirect
	github.com/ipfs/go-ipfs-util v0.0.2 // indirect
	github.com/ipfs/go-log/v2 v2.5.0 // indirect
	github.com/jackpal/go-nat-pmp v1.0.2 // indirect
	github.com/jbenet/go-temp-err-catcher v0.1.0 // indirect
	github.com/klauspost/compress v1.13.6 // indirect
	github.com/klauspost/cpuid/v2 v2.0.9 // indirect
	github.com/koron/go-ssdp v0.0.2 // indirect
	github.com/libp2p/go-buffer-pool v0.0.2 // indirect
	github.com/libp2p/go-cidranger v1.1.0 // indirect
	github.com/libp2p/go-conn-security-multistream v0.3.0 // indirect
	github.com/libp2p/go-eventbus v0.2.1 // indirect
	github.com/libp2p/go-flow-metrics v0.0.3 // indirect
	github.com/libp2p/go-libp2p v0.18.0 // indirect
	github.com/libp2p/go-libp2p-asn-util v0.1.0 // indirect
	github.com/libp2p/go-libp2p-blankhost v0.3.0 // indirect
	github.com/libp2p/go-libp2p-core v0.14.0 // indirect
	github.com/libp2p/go-libp2p-crypto v0.1.0
	github.com/libp2p/go-libp2p-mplex v0.6.0 // indirect
	github.com/libp2p/go-libp2p-nat v0.1.0 // indirect
	github.com/libp2p/go-libp2p-noise v0.3.0 // indirect
	github.com/libp2p/go-libp2p-peerstore v0.6.0 // indirect
	github.com/libp2p/go-libp2p-pnet v0.2.0 // indirect
	github.com/libp2p/go-libp2p-quic-transport v0.16.1 // indirect
	github.com/libp2p/go-libp2p-resource-manager v0.1.5 // indirect
	github.com/libp2p/go-libp2p-swarm v0.10.2 // indirect
	github.com/libp2p/go-libp2p-tls v0.3.1 // indirect
	github.com/libp2p/go-libp2p-transport-upgrader v0.7.1 // indirect
	github.com/libp2p/go-libp2p-yamux v0.8.2 // indirect
	github.com/libp2p/go-mplex v0.6.0 // indirect
	github.com/libp2p/go-msgio v0.1.0 // indirect
	github.com/libp2p/go-nat v0.1.0 // indirect
	github.com/libp2p/go-netroute v0.2.0 // indirect
	github.com/libp2p/go-openssl v0.0.7 // indirect
	github.com/libp2p/go-reuseport v0.1.0 // indirect
	github.com/libp2p/go-reuseport-transport v0.1.0 // indirect
	github.com/libp2p/go-stream-muxer-multistream v0.4.0 // indirect
	github.com/libp2p/go-tcp-transport v0.5.1 // indirect
	github.com/libp2p/go-ws-transport v0.6.0 // indirect
	github.com/libp2p/go-yamux/v3 v3.0.2 // indirect
	github.com/lucas-clemente/quic-go v0.25.0 // indirect
	github.com/marten-seemann/qtls-go1-16 v0.1.4 // indirect
	github.com/marten-seemann/qtls-go1-17 v0.1.0 // indirect
	github.com/marten-seemann/qtls-go1-18 v0.1.0-beta.1 // indirect
	github.com/marten-seemann/tcp v0.0.0-20210406111302-dfbc87cc63fd // indirect
	github.com/mattn/go-isatty v0.0.14 // indirect
	github.com/matttproud/golang_protobuf_extensions v1.0.1 // indirect
	github.com/miekg/dns v1.1.43 // indirect
	github.com/mikioh/tcpinfo v0.0.0-20190314235526-30a79bb1804b // indirect
	github.com/mikioh/tcpopt v0.0.0-20190314235656-172688c1accc // indirect
	github.com/minio/blake2b-simd v0.0.0-20160723061019-3f5f724cb5b1 // indirect
	github.com/minio/sha256-simd v1.0.0 // indirect
	github.com/mr-tron/base58 v1.2.0 // indirect
	github.com/multiformats/go-base32 v0.0.3 // indirect
	github.com/multiformats/go-base36 v0.1.0 // indirect
	github.com/multiformats/go-multiaddr v0.5.0 // indirect
	github.com/multiformats/go-multiaddr-dns v0.3.1 // indirect
	github.com/multiformats/go-multiaddr-fmt v0.1.0 // indirect
	github.com/multiformats/go-multibase v0.0.3 // indirect
	github.com/multiformats/go-multihash v0.0.15 // indirect
	github.com/multiformats/go-multistream v0.2.2 // indirect
	github.com/multiformats/go-varint v0.0.6 // indirect
	github.com/nxadm/tail v1.4.8 // indirect
	github.com/onsi/ginkgo v1.16.4 // indirect
	github.com/opencontainers/runtime-spec v1.0.2 // indirect
	github.com/pbnjay/memory v0.0.0-20210728143218-7b4eea64cf58 // indirect
	github.com/pkg/errors v0.9.1 // indirect
	github.com/prometheus/client_golang v1.11.0 // indirect
	github.com/prometheus/client_model v0.2.0 // indirect
	github.com/prometheus/common v0.30.0 // indirect
	github.com/prometheus/procfs v0.7.3 // indirect
	github.com/raulk/clock v1.1.0 // indirect
	github.com/raulk/go-watchdog v1.2.0 // indirect
	github.com/spacemonkeygo/spacelog v0.0.0-20180420211403-2296661a0572 // indirect
	github.com/whyrusleeping/multiaddr-filter v0.0.0-20160516205228-e903e4adabd7 // indirect
	go.uber.org/atomic v1.9.0 // indirect
	go.uber.org/multierr v1.7.0 // indirect
	go.uber.org/zap v1.19.1 // indirect
	golang.org/x/crypto v0.0.0-20210813211128-0a44fdfbc16e // indirect
	golang.org/x/mod v0.4.2 // indirect
	golang.org/x/net v0.0.0-20210813160813-60bc85c4be6d // indirect
	golang.org/x/sync v0.0.0-20210220032951-036812b2e83c // indirect
	golang.org/x/sys v0.0.0-20210816183151-1e6c022a8912 // indirect
	golang.org/x/tools v0.1.5 // indirect
	golang.org/x/xerrors v0.0.0-20200804184101-5ec99f83aff1 // indirect
	google.golang.org/protobuf v1.27.1 // indirect
	gopkg.in/tomb.v1 v1.0.0-20141024135613-dd632973f1e7 // indirect
)
